…
Tasks #5 is accomplished by first grouping the table by "subject" and "activity", then piped
to a call to summarise_all with single mean function. 

The resulting table from above operation is messy data in the sense that variable values are
column names. Next, the script calls function `gather` with `measure` as key and `mean` as value.
Lastly, the mean values are formated in scientific notion. 

At this moment, a tidy data table is set to `tidy_summary_tb`

This table looks like the following:

# A tibble: 11,880 x 4
# Groups:   subject [30]
   subject activity           measure                     mean        
     <int> <chr>              <chr>                       <chr>       
 1       1 LAYING             time_body_accelation_mean_x 2.215982e-01
 2       1 SITTING            time_body_accelation_mean_x 2.612376e-01
 3       1 STANDING           time_body_accelation_mean_x 2.789176e-01
 4       1 WALKING            time_body_accelation_mean_x 2.773308e-01
 5       1 WALKING_DOWNSTAIRS time_body_accelation_mean_x 2.891883e-01
 6       1 WALKING_UPSTAIRS   time_body_accelation_mean_x 2.554617e-01
 7       2 LAYING             time_body_accelation_mean_x 2.813734e-01
 8       2 SITTING            time_body_accelation_mean_x 2.770874e-01
 9       2 STANDING           time_body_accelation_mean_x 2.779115e-01
10       2 WALKING            time_body_accelation_mean_x 2.764266e-01
# … with 11,870 more rows
…
